Analysis of Arctic prokaryotes using Scanning electron microscopy (SEM) and -energy dispersive X-ray spectroscopy (SEM-EDX)
…
Code

##Estimating proportion
cells_prop <- sem |>
  group_by(depth_category) |>
  mutate(prop = n / sum(n))
print(cells_prop)

# A tibble: 24 × 8
# Groups:   depth_category [2]
   filtration seabasin depth_category depth_range   shape criteria     n    prop
   <chr>      <chr>    <chr>          <chr>         <chr> <chr>    <dbl>   <dbl>
 1 Yes        Amundsen Upper          Upper (10-45… Rods  Yes         20 0.113  
 2 Yes        Amundsen Upper          Upper (10-45… Vibr… Yes         20 0.113  
 3 Yes        Amundsen Upper          Upper (10-45… Cocci Yes          8 0.0452 
 4 Yes        Amundsen Upper          Upper (10-45… Spir… Yes          5 0.0282 
 5 Yes        Amundsen Upper          Upper (10-45… Spir… Yes          1 0.00565
 6 Yes        Amundsen Lower          Lower (274-5… Rods  Yes          6 0.115  
 7 Yes        Amundsen Lower          Lower (274-5… Vibr… Yes          2 0.0385 
 8 Yes        Amundsen Lower          Lower (274-5… Cocci Yes          2 0.0385 
 9 Yes        Amundsen Lower          Lower (274-5… Spir… Yes          1 0.0192 
10 Yes        Makarov  Upper          Upper (10-45… Rods  Yes         40 0.226  
# ℹ 14 more rows
…
cells_prop <- cells_prop %>%
  mutate(
    depth_category = case_when(
      depth_category == "Upper" ~ "Epipelagic\n(n=177)",
      depth_category == "Lower" ~ "Mesopelagic\n(n=52)",
      TRUE ~ as.character(depth_category)  # fallback
    ),
    depth_category = factor(
      depth_category,
      levels = c("Epipelagic\n(n=177)", "Mesopelagic\n(n=52)")
    )
  )
print(cells_prop)

# A tibble: 24 × 8
# Groups:   depth_category [2]
   filtration seabasin depth_category   depth_range shape criteria     n    prop
   <chr>      <chr>    <fct>            <chr>       <chr> <chr>    <dbl>   <dbl>
 1 Yes        Amundsen "Epipelagic\n(n… Upper (10-… Rods  Yes         20 0.113  
 2 Yes        Amundsen "Epipelagic\n(n… Upper (10-… Vibr… Yes         20 0.113  
 3 Yes        Amundsen "Epipelagic\n(n… Upper (10-… Cocci Yes          8 0.0452 
 4 Yes        Amundsen "Epipelagic\n(n… Upper (10-… Spir… Yes          5 0.0282 
 5 Yes        Amundsen "Epipelagic\n(n… Upper (10-… Spir… Yes          1 0.00565
 6 Yes        Amundsen "Mesopelagic\n(… Lower (274… Rods  Yes          6 0.115  
 7 Yes        Amundsen "Mesopelagic\n(… Lower (274… Vibr… Yes          2 0.0385 
 8 Yes        Amundsen "Mesopelagic\n(… Lower (274… Cocci Yes          2 0.0385 
 9 Yes        Amundsen "Mesopelagic\n(… Lower (274… Spir… Yes          1 0.0192 
10 Yes        Makarov  "Epipelagic\n(n… Upper (10-… Rods  Yes         40 0.226  
# ℹ 14 more rows
…
Code

##Use pivot_longer to reshape the data
edx_ratio_cell <- edx_ratio_cell |>
  pivot_longer(
    cols = c("C_N", "C_P", "N_P"),
    names_to = "mol_ratio",
    values_to = "value"
  )
print(edx_ratio_cell)

# A tibble: 294 × 6
   depthID        C     N     P mol_ratio  value
   <fct>      <dbl> <dbl> <dbl> <chr>      <dbl>
 1 Epipelagic  90.9  8.25 0.797 C_N        11.0 
 2 Epipelagic  90.9  8.25 0.797 C_P       114.  
 3 Epipelagic  90.9  8.25 0.797 N_P        10.4 
 4 Epipelagic  88.2 11.1  0.717 C_N         7.94
 5 Epipelagic  88.2 11.1  0.717 C_P       123.  
 6 Epipelagic  88.2 11.1  0.717 N_P        15.5 
 7 Epipelagic  93.0  5.10 0.384 C_N        18.2 
 8 Epipelagic  93.0  5.10 0.384 C_P       242.  
 9 Epipelagic  93.0  5.10 0.384 N_P        13.3 
10 Epipelagic  94.5  6.66 0.368 C_N        14.2 
# ℹ 284 more rows
…
  return(cleaned_data)
}

Code

##Apply outlier removal by depthID and mol_ratio
edx_outliers <- edx_ratio_cell |>
  group_by(depthID, mol_ratio) |>  # Group by depthID and mol_ratio
  mutate(value_no_outliers = remove_outliers(value)) |>  # Apply the outlier removal
  ungroup()  # Remove grouping after applying the function
print(edx_outliers)

# A tibble: 294 × 7
   depthID        C     N     P mol_ratio  value value_no_outliers
   <fct>      <dbl> <dbl> <dbl> <chr>      <dbl>             <dbl>
 1 Epipelagic  90.9  8.25 0.797 C_N        11.0              11.0 
 2 Epipelagic  90.9  8.25 0.797 C_P       114.              114.  
 3 Epipelagic  90.9  8.25 0.797 N_P        10.4              10.4 
 4 Epipelagic  88.2 11.1  0.717 C_N         7.94              7.94
 5 Epipelagic  88.2 11.1  0.717 C_P       123.              123.  
 6 Epipelagic  88.2 11.1  0.717 N_P        15.5              15.5 
 7 Epipelagic  93.0  5.10 0.384 C_N        18.2              18.2 
 8 Epipelagic  93.0  5.10 0.384 C_P       242.              242.  
 9 Epipelagic  93.0  5.10 0.384 N_P        13.3              13.3 
10 Epipelagic  94.5  6.66 0.368 C_N        14.2              14.2 
# ℹ 284 more rows

Code

##Remove rows where Value_outliers is NA (those were outliers)
edx_no_outliers <- edx_outliers %>%
  filter(!is.na(value_no_outliers))  # Keep only rows without outliers
print(edx_no_outliers)

# A tibble: 239 × 7
   depthID        C     N     P mol_ratio  value value_no_outliers
   <fct>      <dbl> <dbl> <dbl> <chr>      <dbl>             <dbl>
 1 Epipelagic  90.9  8.25 0.797 C_N        11.0              11.0 
 2 Epipelagic  90.9  8.25 0.797 C_P       114.              114.  
 3 Epipelagic  90.9  8.25 0.797 N_P        10.4              10.4 
 4 Epipelagic  88.2 11.1  0.717 C_N         7.94              7.94
 5 Epipelagic  88.2 11.1  0.717 C_P       123.              123.  
 6 Epipelagic  88.2 11.1  0.717 N_P        15.5              15.5 
 7 Epipelagic  93.0  5.10 0.384 C_N        18.2              18.2 
 8 Epipelagic  93.0  5.10 0.384 C_P       242.              242.  
 9 Epipelagic  93.0  5.10 0.384 N_P        13.3              13.3 
10 Epipelagic  94.5  6.66 0.368 C_N        14.2              14.2 
# ℹ 229 more rows
…
Code

##Compute proportions for counts
morph_feat_proportion <- morph_feat |>
  group_by(seabasin, depth, feature_acronym) |>
  mutate(total = sum(counts), proportion = counts / total * 100) |>
  ungroup()
print(morph_feat_proportion)

# A tibble: 120 × 8
   seabasin depth      feature_acronym features criteria counts total proportion
   <chr>    <chr>      <chr>           <chr>    <chr>     <dbl> <dbl>      <dbl>
 1 Amundsen Epipelagic CC              Cell co… Yes           0    54       0   
 2 Amundsen Epipelagic CC              Cell co… No           54    54     100   
 3 Amundsen Mesopelag… CC              Cell co… Yes           2    11      18.2 
 4 Amundsen Mesopelag… CC              Cell co… No            9    11      81.8 
 5 Makarov  Epipelagic CC              Cell co… Yes          10    77      13.0 
 6 Makarov  Epipelagic CC              Cell co… No           67    77      87.0 
 7 Makarov  Mesopelag… CC              Cell co… Yes           0    25       0   
 8 Makarov  Mesopelag… CC              Cell co… No           25    25     100   
 9 Nansen   Epipelagic CC              Cell co… Yes           3    46       6.52
10 Nansen   Epipelagic CC              Cell co… No           43    46      93.5 
# ℹ 110 more rows
…
##Modify f1_summary Feature labels
morph_feat_summary <- morph_feat_summary |>
  mutate(
    feature_starred = ifelse(
      feature_acronym %in% significant_features,
      paste0("** ", feature_acronym),
      # or "* " / "** " based on threshold
      feature_acronym
    )
  )
print(morph_feat_summary)

# A tibble: 40 × 5
   depth      feature_acronym criteria mean_proportion feature_starred
   <fct>      <chr>           <chr>              <dbl> <chr>          
 1 Epipelagic CC              No                 93.5  CC             
 2 Epipelagic CC              Yes                 6.50 CC             
 3 Epipelagic CD              No                 97.7  CD             
 4 Epipelagic CD              Yes                 2.35 CD             
 5 Epipelagic EPS             No                 71.0  EPS            
 6 Epipelagic EPS             Yes                29.0  EPS            
 7 Epipelagic FL              No                100    FL             
 8 Epipelagic FL              Yes                 0    FL             
 9 Epipelagic MB              No                 57.0  MB             
10 Epipelagic MB              Yes                43.0  MB             
# ℹ 30 more rows
Code

##Match the new feature_starred factor to the original order
morph_feat_summary <- morph_feat_summary |>
  mutate(feature_starred = factor(
    feature_starred,
    levels = ifelse(
      original_order %in% significant_features,
      paste0("** ", original_order),
      original_order
    )
  ))
print(morph_feat_summary)

# A tibble: 40 × 5
   depth      feature_acronym criteria mean_proportion feature_starred
   <fct>      <chr>           <chr>              <dbl> <fct>          
 1 Epipelagic CC              No                 93.5  CC             
 2 Epipelagic CC              Yes                 6.50 CC             
 3 Epipelagic CD              No                 97.7  CD             
 4 Epipelagic CD              Yes                 2.35 CD             
 5 Epipelagic EPS             No                 71.0  EPS            
 6 Epipelagic EPS             Yes                29.0  EPS            
 7 Epipelagic FL              No                100    FL             
 8 Epipelagic FL              Yes                 0    FL             
 9 Epipelagic MB              No                 57.0  MB             
10 Epipelagic MB              Yes                43.0  MB             
# ℹ 30 more rows
…
